<?xml version="1.0" encoding="UTF-8" standalone="no"?>
<svg
   viewBox="0 0 111.78667 127.38667"
   height="127.38667"
   width="111.78667"
   xml:space="preserve"
   version="1.1"
   id="svg3355"
   sodipodi:docname="Twitch_logo.svg"
   inkscape:version="1.2.2 (b0a8486541, 2022-12-01)"
   xmlns:inkscape="http://www.inkscape.org/namespaces/inkscape"
   xmlns:sodipodi="http://sodipodi.sourceforge.net/DTD/sodipodi-0.dtd"
   xmlns="http://www.w3.org/2000/svg"
   xmlns:svg="http://www.w3.org/2000/svg"><defs
   id="defs11" /><sodipodi:namedview
   id="namedview9"
   pagecolor="#ffffff"
   bordercolor="#666666"
   borderopacity="1.0"
   inkscape:showpageshadow="2"
   inkscape:pageopacity="0.0"
   inkscape:pagecheckerboard="0"
   inkscape:deskcolor="#d1d1d1"
   showgrid="false"
   inkscape:lockguides="true"
   inkscape:zoom="4.7549141"
   inkscape:cx="47.63493"
   inkscape:cy="75.711147"
   inkscape:window-width="1918"
   inkscape:window-height="1058"
   inkscape:window-x="0"
   inkscape:window-y="20"
   inkscape:window-maximized="1"
   inkscape:current-layer="g3363" />
  <g
   transform="matrix(1.3333333,0,0,-1.3333333,-458.69199,935.79824)"
   id="g3363">
    <g
   transform="translate(420.064,651.1567)"
   id="g3365"
   style="fill:#ffffff">
      <path
   id="path3367"
   style="fill:#ffffff;fill-opacity:1;fill-rule:evenodd;stroke:none"
   d="m 0,0 -13.652,-13.651 h -21.445 l -11.699,-11.697 v 11.697 H -64.344 V 42.893 H 0 Z m -72.146,50.692 -3.899,-15.599 v -70.19 h 17.55 v -9.751 h 9.746 l 9.752,9.751 h 15.596 L 7.795,-3.905 v 54.597 z" />
    </g>
    <path
   id="path3369"
   style="fill:#ffffff;fill-opacity:1;fill-rule:evenodd;stroke:none"
   d="m 377.167,655.053 h 7.799 v 23.401 h -7.799 z m 21.446,0 h 7.799 v 23.401 h -7.799 z" />
  </g>
</svg>
